[
    {"source": "app/assistants/stage-assistant.js"},
    { "scenes": "clock",
      "source": "app/assistants/clock-assistant.js" },
    { "scenes": "prefs",
      "source": "app/assistants/prefs-assistant.js" }
]
